[
  {
    "id": "osm",
    "name": "OpenStreetMap",
    "attribution": "Data &copy; <a href=\"http://www.openstreetmap.org/copyright\" rel=\"noopener noreferrer\" target=\"_blank\">OpenStreetMap</a>",
    "urlTemplate": "https://{s}.tile.openstreetmap.org/{z}/{x}/{y}.png",
    "minZoom": 0,
    "maxZoom": 19
  },
  {
    "id": "mapboxStreetsSatellite",
    "name": "Mapbox Streets Satellite",
    "attribution": "Données &copy; <a href=\"http://www.openstreetmap.org/copyright\" rel=\"noopener noreferrer\" target=\"_blank\">OpenStreetMap</a> - Tiles <a href=\"https://www.mapbox.com\" rel=\"noopener noreferrer\" target=\"_blank\">Mapbox</a>",
    "urlTemplate": "https://{s}.tiles.mapbox.com/v4/mapbox.streets-satellite/{z}/{x}/{y}.png?access_token=pk.eyJ1IjoibWFwY29udHJpYiIsImEiOiJjaWt6YTd1OTYwMDY3d25tMHN2b2hhaTJuIn0.HtC_5kFI2ZEZs7ouqfXTcw",
    "minZoom": 0,
    "maxZoom": 22
  },
  {
    "id": "watercolor",
    "name": "Watercolor",
    "attribution": "Tiles <a href=\"http://stamen.com\" rel=\"noopener noreferrer\" target=\"_blank\">Stamen Design</a> under <a href=\"http://creativecommons.org/licenses/by/3.0\" rel=\"noopener noreferrer\" target=\"_blank\">CC BY 3.0</a> - Data &copy; <a href=\"http://www.openstreetmap.org/copyright\" rel=\"noopener noreferrer\" target=\"_blank\">OpenStreetMap</a>",
    "urlTemplate": "http://{s}.tile.stamen.com/watercolor/{z}/{x}/{y}.jpg",
    "minZoom": 0,
    "maxZoom": 18
  },
  {
    "id": "osmMonochrome",
    "name": "OSM Monochrome",
    "attribution": "Data &copy; <a href=\"http://www.openstreetmap.org/copyright\" rel=\"noopener noreferrer\" target=\"_blank\">OpenStreetMap</a>",
    "urlTemplate": "http://{s}.tiles.wmflabs.org/bw-mapnik/{z}/{x}/{y}.png",
    "minZoom": 1,
    "maxZoom": 18
  },
  {
    "id": "osmOutdoors",
    "name": "OSM Outdoors",
    "attribution": "Tiles &copy; <a href=\"http://www.thunderforest.com/outdoors\" rel=\"noopener noreferrer\" target=\"_blank\">Gravitystorm</a> - Data &copy; <a href=\"http://www.openstreetmap.org/copyright\" rel=\"noopener noreferrer\" target=\"_blank\">OpenStreetMap</a>",
    "urlTemplate": "https://{s}.tile.thunderforest.com/outdoors/{z}/{x}/{y}.png",
    "minZoom": 0,
    "maxZoom": 20
  },
  {
    "id": "osmRoads",
    "name": "OSM Roads",
    "attribution": "Tiles &copy; <a href=\"http://giscience.uni-hd.de\" rel=\"noopener noreferrer\" target=\"_blank\">GIScience Research Group at Heidelberg University</a> - Data &copy;  <a href=\"http://www.openstreetmap.org/copyright\" rel=\"noopener noreferrer\" target=\"_blank\">OpenStreetMap</a>",
    "urlTemplate": "http://korona.geog.uni-heidelberg.de/tiles/roads/x={x}&y={y}&z={z}",
    "minZoom": 0,
    "maxZoom": 19
  },
  {
    "id": "landscape",
    "name": "Landscape",
    "attribution": "Tiles &copy; <a href=\"http://www.thunderforest.com/outdoors\" rel=\"noopener noreferrer\" target=\"_blank\">Gravitystorm</a> - Data <a href=\"http://www.openstreetmap.org/copyright\" rel=\"noopener noreferrer\" target=\"_blank\">OpenStreetMap</a>",
    "urlTemplate": "http://{s}.tile3.opencyclemap.org/landscape/{z}/{x}/{y}.png",
    "minZoom": 0,
    "maxZoom": 20
  },
  {
    "id": "toner",
    "name": "Toner",
    "attribution": "Tiles <a href=\"http://stamen.com\" rel=\"noopener noreferrer\" target=\"_blank\">Stamen Design</a> under <a href=\"http://creativecommons.org/licenses/by/3.0\" rel=\"noopener noreferrer\" target=\"_blank\">CC BY 3.0</a> - Data &copy; <a href=\"http://www.openstreetmap.org/copyright\" rel=\"noopener noreferrer\" target=\"_blank\">OpenStreetMap</a>",
    "urlTemplate": "http://{s}.tile.stamen.com/toner-lite/{z}/{x}/{y}.png",
    "minZoom": 0,
    "maxZoom": 20
  },
  {
    "id": "transport",
    "name": "Transport",
    "attribution": "Tiles &copy; <a href=\"http://www.thunderforest.com/outdoors\" rel=\"noopener noreferrer\" target=\"_blank\">Gravitystorm</a> - Data &copy; <a href=\"http://www.openstreetmap.org/copyright\" rel=\"noopener noreferrer\" target=\"_blank\">OpenStreetMap</a>",
    "urlTemplate": "http://{s}.tile2.opencyclemap.org/transport/{z}/{x}/{y}.png",
    "minZoom": 0,
    "maxZoom": 20
  },
  {
    "id": "hot",
    "name": "Humanitarian (HOT)",
    "attribution": "Tiles &copy; <a href=\"http://hotosm.org\" rel=\"noopener noreferrer\" target=\"_blank\">HOT</a> - Data &copy; <a href=\"http://www.openstreetmap.org/copyright\" rel=\"noopener noreferrer\" target=\"_blank\">OpenStreetMap</a>",
    "urlTemplate": "https://{s}.tile.openstreetmap.fr/hot/{z}/{x}/{y}.png",
    "minZoom": 0,
    "maxZoom": 20
  },
  {
    "id": "openCycleMap",
    "name": "OpenCycleMap",
    "attribution": "Tiles &copy; <a href=\"http://www.opencyclemap.org\" rel=\"noopener noreferrer\" target=\"_blank\">OpenCycleMap</a> - Data &copy; <a href=\"http://www.openstreetmap.org/copyright\" rel=\"noopener noreferrer\" target=\"_blank\">OpenStreetMap</a>",
    "urlTemplate": "http://{s}.tile.opencyclemap.org/cycle/{z}/{x}/{y}.png",
    "minZoom": 0,
    "maxZoom": 20
  },
  {
    "id": "hikeBikeMap",
    "name": "HikeBikeMap",
    "attribution": "Tiles &copy; <a href=\"http://www.hikebikemap.org\" rel=\"noopener noreferrer\" target=\"_blank\">HikeBikeMap</a> - Data &copy; <a href=\"http://www.openstreetmap.org/copyright\" rel=\"noopener noreferrer\" target=\"_blank\">OpenStreetMap</a>",
    "urlTemplate": "http://{s}.tiles.wmflabs.org/hikebike/{z}/{x}/{y}.png",
    "minZoom": 0,
    "maxZoom": 20
  },
  {
    "id": "hydda",
    "name": "Hydda",
    "attribution": "Tiles &copy; <a href=\"http://openstreetmap.se\" rel=\"noopener noreferrer\" target=\"_blank\">OpenStreetMap Sweden</a> - Data &copy; <a href=\"http://www.openstreetmap.org/copyright\" rel=\"noopener noreferrer\" target=\"_blank\">OpenStreetMap</a>",
    "urlTemplate": "https://{s}.tile.openstreetmap.se/hydda/full/{z}/{x}/{y}.png",
    "minZoom": 0,
    "maxZoom": 18
  },
  {
    "id": "openTopoMap",
    "name": "OpenTopoMap",
    "attribution": "Tiles &copy; <a href=\"https://opentopomap.org\" rel=\"noopener noreferrer\" target=\"_blank\">OpenTopoMap</a> under <a href=\"https://creativecommons.org/licenses/by-sa/3.0\" rel=\"noopener noreferrer\" target=\"_blank\">CC BY SA 3.0</a> - Data &copy; <a href=\"http://www.openstreetmap.org/copyright\" rel=\"noopener noreferrer\" target=\"_blank\">OpenStreetMap</a>",
    "urlTemplate": "https://{s}.tile.opentopomap.org/{z}/{x}/{y}.png",
    "minZoom": 1,
    "maxZoom": 15
  },
  {
    "id": "openRiverboatMap",
    "name": "OpenRiverboatMap",
    "attribution": "Tiles &copy; <a href=\"http://fluv.io\" rel=\"noopener noreferrer\" target=\"_blank\">OpenRiverBoatMap</a> - Data &copy; <a href=\"http://www.openstreetmap.org/copyright\" rel=\"noopener noreferrer\" target=\"_blank\">OpenStreetMap</a>",
    "urlTemplate": "https://{s}.tile.openstreetmap.fr/openriverboatmap/{z}/{x}/{y}.png",
    "minZoom": 0,
    "maxZoom": 20
  },
  {
    "id": "osmFr",
    "name": "OpenStreetMap Français",
    "attribution": "Données &copy; <a href=\"http://www.openstreetmap.org/copyright\" rel=\"noopener noreferrer\" target=\"_blank\">OpenStreetMap</a>",
    "urlTemplate": "https://{s}.tile.openstreetmap.fr/osmfr/{z}/{x}/{y}.png",
    "minZoom": 0,
    "maxZoom": 20
  },
  {
    "id": "bano",
    "name": "BANO",
    "attribution": "<a href=\"https://openstreetmap.fr/bano\" rel=\"noopener noreferrer\" target=\"_blank\">BANO</a>",
    "urlTemplate": "http://{s}.layers.openstreetmap.fr/bano/{z}/{x}/{y}.png",
    "minZoom": 5,
    "maxZoom": 15
  },
  {
    "id": "cadastre",
    "name": "Cadastre Français",
    "attribution": "Données &copy; <a href=\"http://www.openstreetmap.org/copyright\" rel=\"noopener noreferrer\" target=\"_blank\">OpenStreetMap</a>",
    "urlTemplate": "http://tms.cadastre.openstreetmap.fr/*/tout/{z}/{x}/{y}.png",
    "minZoom": 0,
    "maxZoom": 22
  },
  {
    "id": "osmDe",
    "name": "OpenStreetMap Deutschland",
    "attribution": "Karte hergestellt aus <a href=\"http://osm.org\" rel=\"noopener noreferrer\" target=\"_blank\">OpenStreetMap-Daten</a> | Lizenz: <a href=\"http://opendatacommons.org/licenses/odbl\" rel=\"noopener noreferrer\" target=\"_blank\">Open Database License (ODbL)</a> | Courtesy of <a href=\"http://openstreetmap.de\" rel=\"noopener noreferrer\" target=\"_blank\">OpenStreetMap.de</a>",
    "urlTemplate": "http://{s}.tile.openstreetmap.de/tiles/osmde/{z}/{x}/{y}.png",
    "minZoom": 0,
    "maxZoom": 18
  }
]
